{
    "log": {
        "timestamp": "%Y-%m-%dT%H-%M-%S",
        "path": "/home/data/gitlab/ffp_infoscreen/log/"
    },
    "info_source": {
        "service_routine_period": 10,
        "info_source_to_use": "none",
        "testdata": false,
        "wastl": {
            "url_printpage": "https://infoscreen.florian10.info/ows/infoscreen/print/print.ashx",
            "cookie": ["cookie_name", "cookie_value"]
        }
    },
    "screen": [{
        "normal":{
            "url":"http://www.ff-pressbaum.at/",
            "disable_urlcheck":false,
            "cookie_list": [
                ["cookie_name", "cookie_data"]
            ]
        },
        "alarm":{
            "url":"https://infoscreen.florian10.info/ows/infoscreen/v3/",
            "disable_urlcheck":false,
            "cookie_list": [
                ["cookie_name", "cookie_data"]
            ]
        },
        "pos_xy":[0,0],
        "periodic_reload": 20,
        "geckodriver_explicit_log_path": false
    },
    {
        "normal":{
            "url":"https://infoscreen.florian10.info/ows/infoscreen/v3/",
            "disable_urlcheck":false,
            "cookie_list": [
                ["cookie_name", "cookie_data"]
            ]
        },
        "alarm":{
            "url":"http://www.ff-pressbaum.at/",
            "disable_urlcheck":false,
            "cookie_list": [
                ["cookie_name", "cookie_data"]
            ]
        },
        "pos_xy":[1366,0],
        "periodic_reload": 20,
        "geckodriver_explicit_log_path": false
    }]
}
